EESchema Schematic File Version 2
LIBS:power
LIBS:device
LIBS:transistors
LIBS:conn
LIBS:linear
LIBS:regul
LIBS:74xx
LIBS:cmos4000
LIBS:adc-dac
LIBS:memory
LIBS:xilinx
LIBS:special
LIBS:microcontrollers
LIBS:dsp
LIBS:microchip
LIBS:analog_switches
LIBS:motorola
LIBS:texas
LIBS:intel
LIBS:audio
LIBS:interface
LIBS:digital-audio
LIBS:philips
LIBS:display
LIBS:cypress
LIBS:siliconi
LIBS:opto
LIBS:atmel
LIBS:contrib
LIBS:valves
LIBS:LDR
LIBS:switch-dil
LIBS:con-jack
LIBS:podlewaczka_v2-cache
EELAYER 27 0
EELAYER END
$Descr A4 11693 8268
encoding utf-8
Sheet 1 1
Title "Podlewaczka v2"
Date "4 aug 2016"
Rev ""
Comp "Łukasz Gruszczelak"
Comment1 ""
Comment2 ""
Comment3 ""
Comment4 ""
$EndDescr
$Comp
L ATMEGA8A-A IC1
U 1 1 579B2913
P 4850 4000
F 0 "IC1" H 4100 5200 40  0000 L BNN
F 1 "ATMEGA8A-A" H 5350 2450 40  0000 L BNN
F 2 "TQFP32" H 4850 4000 30  0000 C CIN
F 3 "" H 4850 4000 60  0000 C CNN
	1    4850 4000
	1    0    0    -1  
$EndComp
$Comp
L PWR_FLAG #FLG01
U 1 1 579B2B1E
P 1450 1200
F 0 "#FLG01" H 1450 1295 30  0001 C CNN
F 1 "PWR_FLAG" H 1450 1380 30  0000 C CNN
F 2 "" H 1450 1200 60  0000 C CNN
F 3 "" H 1450 1200 60  0000 C CNN
	1    1450 1200
	1    0    0    -1  
$EndComp
$Comp
L PWR_FLAG #FLG02
U 1 1 579B2B37
P 1100 1200
F 0 "#FLG02" H 1100 1295 30  0001 C CNN
F 1 "PWR_FLAG" H 1100 1380 30  0000 C CNN
F 2 "" H 1100 1200 60  0000 C CNN
F 3 "" H 1100 1200 60  0000 C CNN
	1    1100 1200
	1    0    0    -1  
$EndComp
$Comp
L GND #PWR03
U 1 1 579B2B55
P 1100 1350
F 0 "#PWR03" H 1100 1350 30  0001 C CNN
F 1 "GND" H 1100 1280 30  0001 C CNN
F 2 "" H 1100 1350 60  0000 C CNN
F 3 "" H 1100 1350 60  0000 C CNN
	1    1100 1350
	1    0    0    -1  
$EndComp
$Comp
L DIL6 P1
U 1 1 579B3E1A
P 6700 3500
F 0 "P1" H 6700 3264 60  0000 C CNN
F 1 "ISP" V 6700 3500 50  0000 C CNN
F 2 "" H 6700 3500 60  0000 C CNN
F 3 "" H 6700 3500 60  0000 C CNN
	1    6700 3500
	1    0    0    -1  
$EndComp
$Comp
L VCC #PWR04
U 1 1 579B40F6
P 7100 3400
F 0 "#PWR04" H 7100 3500 30  0001 C CNN
F 1 "VCC" H 7100 3500 30  0000 C CNN
F 2 "" H 7100 3400 60  0000 C CNN
F 3 "" H 7100 3400 60  0000 C CNN
	1    7100 3400
	1    0    0    -1  
$EndComp
$Comp
L GND #PWR05
U 1 1 579B4111
P 7050 3600
F 0 "#PWR05" H 7050 3600 30  0001 C CNN
F 1 "GND" H 7050 3530 30  0001 C CNN
F 2 "" H 7050 3600 60  0000 C CNN
F 3 "" H 7050 3600 60  0000 C CNN
	1    7050 3600
	0    -1   -1   0   
$EndComp
$Comp
L VCC #PWR06
U 1 1 579B463C
P 5000 2650
F 0 "#PWR06" H 5000 2750 30  0001 C CNN
F 1 "VCC" H 5000 2750 30  0000 C CNN
F 2 "" H 5000 2650 60  0000 C CNN
F 3 "" H 5000 2650 60  0000 C CNN
	1    5000 2650
	1    0    0    -1  
$EndComp
$Comp
L R R1
U 1 1 579B4D4B
P 4900 2400
F 0 "R1" V 4980 2400 40  0000 C CNN
F 1 "10k" V 4907 2401 40  0000 C CNN
F 2 "~" V 4830 2400 30  0000 C CNN
F 3 "~" H 4900 2400 30  0000 C CNN
	1    4900 2400
	1    0    0    -1  
$EndComp
$Comp
L SW_PUSH SW2
U 1 1 579B55D2
P 4200 2450
F 0 "SW2" H 4350 2560 50  0000 C CNN
F 1 "RESET" H 4200 2370 50  0000 C CNN
F 2 "~" H 4200 2450 60  0000 C CNN
F 3 "~" H 4200 2450 60  0000 C CNN
	1    4200 2450
	1    0    0    -1  
$EndComp
$Comp
L GND #PWR07
U 1 1 579B55FC
P 4600 2450
F 0 "#PWR07" H 4600 2450 30  0001 C CNN
F 1 "GND" H 4600 2380 30  0001 C CNN
F 2 "" H 4600 2450 60  0000 C CNN
F 3 "" H 4600 2450 60  0000 C CNN
	1    4600 2450
	0    -1   -1   0   
$EndComp
$Comp
L GND #PWR08
U 1 1 579B5773
P 4850 5750
F 0 "#PWR08" H 4850 5750 30  0001 C CNN
F 1 "GND" H 4850 5680 30  0001 C CNN
F 2 "" H 4850 5750 60  0000 C CNN
F 3 "" H 4850 5750 60  0000 C CNN
	1    4850 5750
	-1   0    0    -1  
$EndComp
$Comp
L GND #PWR09
U 1 1 579B5BC9
P 3800 3400
F 0 "#PWR09" H 3800 3400 30  0001 C CNN
F 1 "GND" H 3800 3330 30  0001 C CNN
F 2 "" H 3800 3400 60  0000 C CNN
F 3 "" H 3800 3400 60  0000 C CNN
	1    3800 3400
	0    1    1    0   
$EndComp
$Comp
L VCC #PWR010
U 1 1 579B5C4F
P 3850 3200
F 0 "#PWR010" H 3850 3300 30  0001 C CNN
F 1 "VCC" H 3850 3300 30  0000 C CNN
F 2 "" H 3850 3200 60  0000 C CNN
F 3 "" H 3850 3200 60  0000 C CNN
	1    3850 3200
	1    0    0    -1  
$EndComp
$Comp
L C C1
U 1 1 579B6859
P 3500 3100
F 0 "C1" H 3500 3200 40  0000 L CNN
F 1 "100nF" H 3506 3015 40  0000 L CNN
F 2 "~" H 3538 2950 30  0000 C CNN
F 3 "~" H 3500 3100 60  0000 C CNN
	1    3500 3100
	1    0    0    -1  
$EndComp
$Comp
L LCD16X2 DS1
U 1 1 579B6DC2
P 4850 7150
F 0 "DS1" H 4050 7550 40  0000 C CNN
F 1 "LCD16X2" H 5550 7550 40  0000 C CNN
F 2 "WC1602A" H 4850 7100 35  0000 C CIN
F 3 "~" H 4850 7150 60  0000 C CNN
	1    4850 7150
	1    0    0    1   
$EndComp
$Comp
L LED D1
U 1 1 579B6F77
P 5700 6450
F 0 "D1" H 5700 6550 50  0000 C CNN
F 1 "LCD_LED" H 5700 6350 50  0000 C CNN
F 2 "~" H 5700 6450 60  0000 C CNN
F 3 "~" H 5700 6450 60  0000 C CNN
	1    5700 6450
	1    0    0    1   
$EndComp
$Comp
L R R2
U 1 1 579B704C
P 5900 6700
F 0 "R2" V 5980 6700 40  0000 C CNN
F 1 "230" V 5907 6701 40  0000 C CNN
F 2 "~" V 5830 6700 30  0000 C CNN
F 3 "~" H 5900 6700 30  0000 C CNN
	1    5900 6700
	-1   0    0    -1  
$EndComp
$Comp
L POT RV1
U 1 1 579B7220
P 4200 6250
F 0 "RV1" H 4200 6150 50  0000 C CNN
F 1 "10k" H 4200 6250 50  0000 C CNN
F 2 "~" H 4200 6250 60  0000 C CNN
F 3 "~" H 4200 6250 60  0000 C CNN
	1    4200 6250
	0    1    -1   0   
$EndComp
$Comp
L GND #PWR011
U 1 1 579B72CA
P 3950 6550
F 0 "#PWR011" H 3950 6550 30  0001 C CNN
F 1 "GND" H 3950 6480 30  0001 C CNN
F 2 "" H 3950 6550 60  0000 C CNN
F 3 "" H 3950 6550 60  0000 C CNN
	1    3950 6550
	0    1    -1   0   
$EndComp
NoConn ~ 5000 6650
NoConn ~ 4900 6650
NoConn ~ 4800 6650
NoConn ~ 4700 6650
$Comp
L CONN_2 P3
U 1 1 579B7502
P 8050 4650
F 0 "P3" V 8000 4650 40  0000 C CNN
F 1 "Sonda" V 8100 4650 40  0000 C CNN
F 2 "" H 8050 4650 60  0000 C CNN
F 3 "" H 8050 4650 60  0000 C CNN
	1    8050 4650
	1    0    0    -1  
$EndComp
$Comp
L CONN_4 P2
U 1 1 579B759E
P 7200 5550
F 0 "P2" V 7150 5550 50  0000 C CNN
F 1 "DHT11" V 7250 5550 50  0000 C CNN
F 2 "" H 7200 5550 60  0000 C CNN
F 3 "" H 7200 5550 60  0000 C CNN
	1    7200 5550
	0    1    1    0   
$EndComp
$Comp
L GND #PWR012
U 1 1 579B76C7
P 7050 5200
F 0 "#PWR012" H 7050 5200 30  0001 C CNN
F 1 "GND" H 7050 5130 30  0001 C CNN
F 2 "" H 7050 5200 60  0000 C CNN
F 3 "" H 7050 5200 60  0000 C CNN
	1    7050 5200
	-1   0    0    1   
$EndComp
$Comp
L VCC #PWR013
U 1 1 579B775A
P 7350 5200
F 0 "#PWR013" H 7350 5300 30  0001 C CNN
F 1 "VCC" H 7350 5300 30  0000 C CNN
F 2 "" H 7350 5200 60  0000 C CNN
F 3 "" H 7350 5200 60  0000 C CNN
	1    7350 5200
	1    0    0    -1  
$EndComp
$Comp
L SPEAKER SP1
U 1 1 579B8540
P 7400 2600
F 0 "SP1" H 7300 2850 70  0000 C CNN
F 1 "Watter_low" H 7300 2350 70  0000 C CNN
F 2 "~" H 7400 2600 60  0000 C CNN
F 3 "~" H 7400 2600 60  0000 C CNN
	1    7400 2600
	1    0    0    -1  
$EndComp
$Comp
L LDR U1
U 1 1 579B8F15
P 8600 4300
F 0 "U1" H 8600 4100 60  0000 C CNN
F 1 "LDR" H 8600 4450 60  0000 C CNN
F 2 "~" H 8600 4300 60  0000 C CNN
F 3 "~" H 8600 4300 60  0000 C CNN
	1    8600 4300
	1    0    0    -1  
$EndComp
$Comp
L R R14
U 1 1 579B8FA5
P 8350 3950
F 0 "R14" V 8430 3950 40  0000 C CNN
F 1 "20k" V 8357 3951 40  0000 C CNN
F 2 "~" V 8280 3950 30  0000 C CNN
F 3 "~" H 8350 3950 30  0000 C CNN
	1    8350 3950
	1    0    0    -1  
$EndComp
$Comp
L GND #PWR014
U 1 1 579B8FD0
P 8850 4300
F 0 "#PWR014" H 8850 4300 30  0001 C CNN
F 1 "GND" H 8850 4230 30  0001 C CNN
F 2 "" H 8850 4300 60  0000 C CNN
F 3 "" H 8850 4300 60  0000 C CNN
	1    8850 4300
	0    -1   -1   0   
$EndComp
$Comp
L BATTERY BT1
U 1 1 579BA40F
P 2850 1850
F 0 "BT1" H 2850 2050 50  0000 C CNN
F 1 "BATTERY" H 2850 1660 50  0000 C CNN
F 2 "~" H 2850 1850 60  0000 C CNN
F 3 "~" H 2850 1850 60  0000 C CNN
	1    2850 1850
	0    -1   -1   0   
$EndComp
$Comp
L SWITCH_INV SW1
U 1 1 579BA41E
P 2350 1450
F 0 "SW1" H 2150 1600 50  0000 C CNN
F 1 "SWITCH_INV" H 2200 1300 50  0000 C CNN
F 2 "~" H 2350 1450 60  0000 C CNN
F 3 "~" H 2350 1450 60  0000 C CNN
	1    2350 1450
	1    0    0    -1  
$EndComp
$Comp
L GND #PWR015
U 1 1 579BA44F
P 2850 2150
F 0 "#PWR015" H 2850 2150 30  0001 C CNN
F 1 "GND" H 2850 2080 30  0001 C CNN
F 2 "" H 2850 2150 60  0000 C CNN
F 3 "" H 2850 2150 60  0000 C CNN
	1    2850 2150
	1    0    0    -1  
$EndComp
$Comp
L VCC #PWR016
U 1 1 579BA6C7
P 9000 6000
F 0 "#PWR016" H 9000 6100 30  0001 C CNN
F 1 "VCC" H 9000 6100 30  0000 C CNN
F 2 "" H 9000 6000 60  0000 C CNN
F 3 "" H 9000 6000 60  0000 C CNN
	1    9000 6000
	-1   0    0    1   
$EndComp
$Comp
L CONN_2 P4
U 1 1 579BBAD5
P 8750 6800
F 0 "P4" V 8700 6800 40  0000 C CNN
F 1 "Pump" V 8800 6800 40  0000 C CNN
F 2 "" H 8750 6800 60  0000 C CNN
F 3 "" H 8750 6800 60  0000 C CNN
	1    8750 6800
	1    0    0    -1  
$EndComp
$Comp
L BC237 Q2
U 1 1 579BBAF3
P 8300 6500
F 0 "Q2" H 8500 6400 50  0000 C CNN
F 1 "BC237" H 8550 6650 50  0000 C CNN
F 2 "TO92-EBC" H 8490 6500 30  0001 C CNN
F 3 "" H 8300 6500 60  0000 C CNN
	1    8300 6500
	1    0    0    -1  
$EndComp
$Comp
L GND #PWR017
U 1 1 579BBB0A
P 8400 6900
F 0 "#PWR017" H 8400 6900 30  0001 C CNN
F 1 "GND" H 8400 6830 30  0001 C CNN
F 2 "" H 8400 6900 60  0000 C CNN
F 3 "" H 8400 6900 60  0000 C CNN
	1    8400 6900
	0    1    -1   0   
$EndComp
$Comp
L R R4
U 1 1 579BBB9F
P 7450 6450
F 0 "R4" V 7530 6450 40  0000 C CNN
F 1 "1k" V 7457 6451 40  0000 C CNN
F 2 "~" V 7380 6450 30  0000 C CNN
F 3 "~" H 7450 6450 30  0000 C CNN
	1    7450 6450
	0    1    1    0   
$EndComp
$Comp
L R R3
U 1 1 579BBCDF
P 9250 2500
F 0 "R3" H 9330 2500 40  0000 C CNN
F 1 "230" V 9257 2501 40  0000 C CNN
F 2 "~" V 9180 2500 30  0000 C CNN
F 3 "~" H 9250 2500 30  0000 C CNN
	1    9250 2500
	0    1    1    0   
$EndComp
$Comp
L LED D2
U 1 1 579BBD17
P 8800 2500
F 0 "D2" H 8800 2600 50  0000 C CNN
F 1 "silnik" H 8800 2400 50  0000 C CNN
F 2 "~" H 8800 2500 60  0000 C CNN
F 3 "~" H 8800 2500 60  0000 C CNN
	1    8800 2500
	-1   0    0    1   
$EndComp
$Comp
L GND #PWR018
U 1 1 579BBD1D
P 8150 4200
F 0 "#PWR018" H 8150 4200 30  0001 C CNN
F 1 "GND" H 8150 4130 30  0001 C CNN
F 2 "" H 8150 4200 60  0000 C CNN
F 3 "" H 8150 4200 60  0000 C CNN
	1    8150 4200
	0    -1   1    0   
$EndComp
$Comp
L R R5
U 1 1 579BBEDD
P 9250 2200
F 0 "R5" H 9330 2200 40  0000 C CNN
F 1 "230" V 9257 2201 40  0000 C CNN
F 2 "~" V 9180 2200 30  0000 C CNN
F 3 "~" H 9250 2200 30  0000 C CNN
	1    9250 2200
	0    1    1    0   
$EndComp
$Comp
L LED D3
U 1 1 579BBEE3
P 8800 2200
F 0 "D3" H 8800 2300 50  0000 C CNN
F 1 "Aku_low" H 8800 2100 50  0000 C CNN
F 2 "~" H 8800 2200 60  0000 C CNN
F 3 "~" H 8800 2200 60  0000 C CNN
	1    8800 2200
	-1   0    0    1   
$EndComp
$Comp
L R R11
U 1 1 579BBFD4
P 7950 4400
F 0 "R11" V 8030 4400 40  0000 C CNN
F 1 "22k" V 7957 4401 40  0000 C CNN
F 2 "~" V 7880 4400 30  0000 C CNN
F 3 "~" H 7950 4400 30  0000 C CNN
	1    7950 4400
	0    -1   -1   0   
$EndComp
$Comp
L GND #PWR019
U 1 1 579BC312
P 7700 4750
F 0 "#PWR019" H 7700 4750 30  0001 C CNN
F 1 "GND" H 7700 4680 30  0001 C CNN
F 2 "" H 7700 4750 60  0000 C CNN
F 3 "" H 7700 4750 60  0000 C CNN
	1    7700 4750
	0    1    -1   0   
$EndComp
$Comp
L VCC #PWR020
U 1 1 579BC318
P 8200 4400
F 0 "#PWR020" H 8200 4500 30  0001 C CNN
F 1 "VCC" H 8200 4500 30  0000 C CNN
F 2 "" H 8200 4400 60  0000 C CNN
F 3 "" H 8200 4400 60  0000 C CNN
	1    8200 4400
	0    1    1    0   
$EndComp
$Comp
L R R7
U 1 1 579BC51C
P 6900 4750
F 0 "R7" V 6980 4750 40  0000 C CNN
F 1 "10k" V 6907 4751 40  0000 C CNN
F 2 "~" V 6830 4750 30  0000 C CNN
F 3 "~" H 6900 4750 30  0000 C CNN
	1    6900 4750
	0    -1   -1   0   
$EndComp
$Comp
L R R6
U 1 1 579BC86E
P 6750 4600
F 0 "R6" V 6830 4600 40  0000 C CNN
F 1 "10k" V 6757 4601 40  0000 C CNN
F 2 "~" V 6680 4600 30  0000 C CNN
F 3 "~" H 6750 4600 30  0000 C CNN
	1    6750 4600
	0    -1   -1   0   
$EndComp
$Comp
L SW_PUSH SW3
U 1 1 579BC92E
P 6150 4500
F 0 "SW3" H 6300 4610 50  0000 C CNN
F 1 "Mode" H 6150 4420 50  0000 C CNN
F 2 "~" H 6150 4500 60  0000 C CNN
F 3 "~" H 6150 4500 60  0000 C CNN
	1    6150 4500
	1    0    0    -1  
$EndComp
$Comp
L SW_PUSH SW4
U 1 1 579BC934
P 6200 4700
F 0 "SW4" H 6350 4810 50  0000 C CNN
F 1 "Set" H 6200 4620 50  0000 C CNN
F 2 "~" H 6200 4700 60  0000 C CNN
F 3 "~" H 6200 4700 60  0000 C CNN
	1    6200 4700
	1    0    0    -1  
$EndComp
$Comp
L GND #PWR021
U 1 1 579BD09F
P 6600 4500
F 0 "#PWR021" H 6600 4500 30  0001 C CNN
F 1 "GND" H 6600 4430 30  0001 C CNN
F 2 "" H 6600 4500 60  0000 C CNN
F 3 "" H 6600 4500 60  0000 C CNN
	1    6600 4500
	0    -1   1    0   
$EndComp
$Comp
L VCC #PWR022
U 1 1 579BD0D8
P 7200 4700
F 0 "#PWR022" H 7200 4800 30  0001 C CNN
F 1 "VCC" H 7200 4800 30  0000 C CNN
F 2 "" H 7200 4700 60  0000 C CNN
F 3 "" H 7200 4700 60  0000 C CNN
	1    7200 4700
	0    1    1    0   
$EndComp
NoConn ~ 7150 5200
$Comp
L R R8
U 1 1 579BD559
P 7450 5000
F 0 "R8" V 7530 5000 40  0000 C CNN
F 1 "10k" V 7457 5001 40  0000 C CNN
F 2 "~" V 7380 5000 30  0000 C CNN
F 3 "~" H 7450 5000 30  0000 C CNN
	1    7450 5000
	-1   0    0    1   
$EndComp
$Comp
L GND #PWR023
U 1 1 579BDA50
P 3300 1250
F 0 "#PWR023" H 3300 1250 30  0001 C CNN
F 1 "GND" H 3300 1180 30  0001 C CNN
F 2 "" H 3300 1250 60  0000 C CNN
F 3 "" H 3300 1250 60  0000 C CNN
	1    3300 1250
	0    1    1    0   
$EndComp
$Comp
L VCC #PWR024
U 1 1 579BDB47
P 8350 3700
F 0 "#PWR024" H 8350 3800 30  0001 C CNN
F 1 "VCC" H 8350 3800 30  0000 C CNN
F 2 "" H 8350 3700 60  0000 C CNN
F 3 "" H 8350 3700 60  0000 C CNN
	1    8350 3700
	1    0    0    -1  
$EndComp
$Comp
L R R31
U 1 1 579DFAEC
P 6550 6150
F 0 "R31" V 6630 6150 40  0000 C CNN
F 1 "10k" V 6557 6151 40  0000 C CNN
F 2 "~" V 6480 6150 30  0000 C CNN
F 3 "~" H 6550 6150 30  0000 C CNN
	1    6550 6150
	0    1    1    0   
$EndComp
$Comp
L GND #PWR025
U 1 1 579DFBA6
P 6300 6150
F 0 "#PWR025" H 6300 6150 30  0001 C CNN
F 1 "GND" H 6300 6080 30  0001 C CNN
F 2 "" H 6300 6150 60  0000 C CNN
F 3 "" H 6300 6150 60  0000 C CNN
	1    6300 6150
	0    1    1    0   
$EndComp
$Comp
L R R32
U 1 1 579DFD28
P 7900 4200
F 0 "R32" V 7980 4200 40  0000 C CNN
F 1 "10k" V 7907 4201 40  0000 C CNN
F 2 "~" V 7830 4200 30  0000 C CNN
F 3 "~" H 7900 4200 30  0000 C CNN
	1    7900 4200
	0    -1   -1   0   
$EndComp
$Comp
L LED_PACK10 LEDP?1
U 1 1 579E1838
P 10000 5200
F 0 "LEDP?1" H 10000 5700 40  0000 C CNN
F 1 "LED_PACK10" H 9990 4560 40  0000 C CNN
F 2 "~" H 10000 5200 60  0000 C CNN
F 3 "~" H 10000 5200 60  0000 C CNN
	1    10000 5200
	0    -1   -1   0   
$EndComp
$Comp
L R R30
U 1 1 579E220A
P 10550 4750
F 0 "R30" V 10630 4750 40  0001 C CNN
F 1 "230" V 10557 4751 40  0000 C CNN
F 2 "~" V 10480 4750 30  0000 C CNN
F 3 "~" H 10550 4750 30  0000 C CNN
	1    10550 4750
	1    0    0    -1  
$EndComp
$Comp
L DIL14 P5
U 1 1 579E52FF
P 5050 1100
F 0 "P5" H 5050 1500 60  0000 C CNN
F 1 "Sondy" V 5050 1100 50  0000 C CNN
F 2 "" H 5050 1100 60  0000 C CNN
F 3 "" H 5050 1100 60  0000 C CNN
	1    5050 1100
	1    0    0    -1  
$EndComp
Text Label 5750 800  2    47   ~ 0
S_alarm
NoConn ~ 5400 1400
NoConn ~ 4700 1400
$Comp
L VCC #PWR026
U 1 1 579E6508
P 4600 800
F 0 "#PWR026" H 4600 900 30  0001 C CNN
F 1 "VCC" H 4600 900 30  0000 C CNN
F 2 "" H 4600 800 60  0000 C CNN
F 3 "" H 4600 800 60  0000 C CNN
	1    4600 800 
	1    0    0    -1  
$EndComp
Text Label 4400 900  0    47   ~ 0
S1
Text Label 4400 1000 0    47   ~ 0
S3
Text Label 4400 1100 0    47   ~ 0
S5
Text Label 4400 1200 0    47   ~ 0
S7
Text Label 4400 1300 0    47   ~ 0
S9
Text Label 5750 900  2    47   ~ 0
S2
Text Label 5750 1000 2    47   ~ 0
S4
Text Label 5750 1100 2    47   ~ 0
S6
Text Label 5750 1200 2    47   ~ 0
S8
Text Label 5750 1300 2    47   ~ 0
S10
Text Label 7950 4050 2    47   ~ 0
S_alarm
Text Label 11100 2900 3    47   ~ 0
S1
Text Label 10450 2900 3    47   ~ 0
S2
Text Label 10350 2900 3    47   ~ 0
S3
Text Label 10250 2900 3    47   ~ 0
S4
Text Label 10150 2900 3    47   ~ 0
S5
Text Label 10050 2900 3    47   ~ 0
S6
Text Label 9950 2900 3    47   ~ 0
S7
Text Label 9850 2900 3    47   ~ 0
S8
Text Label 9750 2900 3    47   ~ 0
S9
Text Label 8850 2900 3    47   ~ 0
S10
$Comp
L GND #PWR027
U 1 1 579E79C0
P 8150 5100
F 0 "#PWR027" H 8150 5100 30  0001 C CNN
F 1 "GND" H 8150 5030 30  0001 C CNN
F 2 "" H 8150 5100 60  0000 C CNN
F 3 "" H 8150 5100 60  0000 C CNN
	1    8150 5100
	-1   0    0    1   
$EndComp
$Comp
L R R33
U 1 1 579E79C6
P 8150 5350
F 0 "R33" V 8230 5350 40  0000 C CNN
F 1 "10k" V 8157 5351 40  0000 C CNN
F 2 "~" V 8080 5350 30  0000 C CNN
F 3 "~" H 8150 5350 30  0000 C CNN
	1    8150 5350
	-1   0    0    1   
$EndComp
$Comp
L GND #PWR028
U 1 1 579E79D8
P 7100 2500
F 0 "#PWR028" H 7100 2500 30  0001 C CNN
F 1 "GND" H 7100 2430 30  0001 C CNN
F 2 "" H 7100 2500 60  0000 C CNN
F 3 "" H 7100 2500 60  0000 C CNN
	1    7100 2500
	0    1    1    0   
$EndComp
$Comp
L DA04 S1
U 1 1 579E65A8
P 8600 6000
F 0 "S1" V 8365 5800 45  0000 L BNN
F 1 "Switches" V 8940 5800 45  0000 L BNN
F 2 "switch-dil_DA-04" H 8630 6150 20  0001 C CNN
F 3 "" H 8600 6000 60  0000 C CNN
	1    8600 6000
	0    -1   -1   0   
$EndComp
Wire Wire Line
	5850 4300 8350 4300
Wire Wire Line
	5850 5200 6000 5200
Wire Wire Line
	5400 6300 5550 6300
Wire Wire Line
	5400 6300 5400 6650
Wire Wire Line
	5300 6150 5300 6650
Wire Wire Line
	4600 6650 4600 5900
Wire Wire Line
	4500 5750 4500 6650
Wire Wire Line
	4400 5900 4400 6650
Wire Wire Line
	4050 6000 4200 6000
Connection ~ 4200 6550
Wire Wire Line
	4050 6000 4050 6650
Wire Wire Line
	4050 6550 3950 6550
Connection ~ 4050 6550
Wire Wire Line
	4200 6650 4200 6500
Wire Wire Line
	4050 6650 4100 6650
Wire Wire Line
	4350 6650 4300 6650
Wire Wire Line
	4350 6250 4350 6650
Wire Wire Line
	5750 6950 5900 6950
Wire Wire Line
	5750 6650 5750 6950
Wire Wire Line
	5600 6650 5750 6650
Wire Wire Line
	5500 6450 5500 6650
Wire Wire Line
	3500 3300 3950 3300
Connection ~ 3850 3200
Wire Wire Line
	3750 2900 3750 3200
Wire Wire Line
	3500 2900 3750 2900
Wire Wire Line
	3750 3200 3950 3200
Wire Wire Line
	3950 3400 3800 3400
Connection ~ 4850 5650
Wire Wire Line
	4850 5650 4850 5750
Wire Wire Line
	4900 5650 4900 5600
Wire Wire Line
	4800 5650 4900 5650
Wire Wire Line
	4800 5600 4800 5650
Wire Wire Line
	4600 2450 4500 2450
Connection ~ 4900 2150
Connection ~ 4900 2650
Wire Wire Line
	4900 2650 4900 2700
Wire Wire Line
	4800 2650 5000 2650
Wire Wire Line
	4800 2700 4800 2650
Wire Wire Line
	7050 3400 7100 3400
Wire Wire Line
	6150 3600 6350 3600
Wire Wire Line
	3900 2150 3900 3000
Wire Wire Line
	3900 3000 3950 3000
Wire Wire Line
	1450 1200 1450 1450
Wire Wire Line
	1100 1200 1100 1350
Wire Wire Line
	7900 6550 4200 6550
Wire Wire Line
	7900 5900 7900 6550
Wire Wire Line
	8200 6150 8200 6300
Wire Wire Line
	8200 6300 8400 6300
Connection ~ 3900 2450
Connection ~ 8350 4300
Wire Wire Line
	8350 4300 8350 4200
Wire Wire Line
	7700 4400 7700 4550
Wire Wire Line
	7550 4450 7700 4450
Connection ~ 7700 4450
Wire Wire Line
	5850 4500 5850 4600
Wire Wire Line
	5900 4700 5850 4700
Wire Wire Line
	5850 4600 6500 4600
Wire Wire Line
	5900 4700 5900 4750
Wire Wire Line
	5900 4750 6650 4750
Wire Wire Line
	7000 4600 7150 4600
Wire Wire Line
	7150 4600 7150 4750
Wire Wire Line
	7150 4700 7200 4700
Connection ~ 7150 4700
Wire Wire Line
	6450 4500 6600 4500
Wire Wire Line
	6550 4500 6550 4700
Wire Wire Line
	6550 4700 6500 4700
Connection ~ 6550 4500
Connection ~ 5850 4600
Connection ~ 5900 4700
Wire Wire Line
	7250 5200 7250 4850
Wire Wire Line
	5850 4850 7350 4850
Wire Wire Line
	5850 4850 5850 4800
Wire Wire Line
	7450 4750 7350 4750
Wire Wire Line
	7350 4750 7350 4850
Connection ~ 7250 4850
Wire Wire Line
	7350 5200 7400 5200
Wire Wire Line
	7400 5200 7400 5250
Wire Wire Line
	7400 5250 7450 5250
Connection ~ 7350 5200
Wire Wire Line
	6800 6150 8300 6150
Connection ~ 8200 6150
Wire Wire Line
	5850 4200 7650 4200
Wire Wire Line
	9650 5400 9650 5550
Wire Wire Line
	10450 5400 10450 5550
Connection ~ 10450 5550
Wire Wire Line
	10350 5400 10350 5550
Connection ~ 10350 5550
Wire Wire Line
	10250 5400 10250 5550
Connection ~ 10250 5550
Wire Wire Line
	10150 5400 10150 5550
Connection ~ 10150 5550
Wire Wire Line
	10050 5400 10050 5550
Connection ~ 10050 5550
Wire Wire Line
	9950 5400 9950 5550
Connection ~ 9950 5550
Wire Wire Line
	9850 5400 9850 5550
Connection ~ 9850 5550
Wire Wire Line
	9750 5400 9750 5550
Connection ~ 9750 5550
Wire Wire Line
	4700 900  4400 900 
Wire Wire Line
	5400 800  5750 800 
Wire Wire Line
	4400 1000 4700 1000
Wire Wire Line
	4700 1100 4400 1100
Wire Wire Line
	5400 900  5750 900 
Wire Wire Line
	5400 1000 5750 1000
Wire Wire Line
	5400 1100 5750 1100
Wire Wire Line
	5400 1200 5750 1200
Wire Wire Line
	4700 1200 4400 1200
Wire Wire Line
	4700 1300 4400 1300
Wire Wire Line
	5400 1300 5750 1300
Wire Wire Line
	4700 800  4600 800 
Wire Wire Line
	7650 4050 7950 4050
Wire Wire Line
	8300 6150 8300 6100
Wire Wire Line
	7900 5900 8300 5900
Wire Wire Line
	8900 5800 8900 6100
Wire Wire Line
	8900 6000 9000 6000
Connection ~ 8900 6000
Connection ~ 8900 5900
Connection ~ 8900 6100
$Comp
L DIODESCH D4
U 1 1 579E7040
P 3050 1350
F 0 "D4" H 3050 1450 40  0000 C CNN
F 1 "DIODESCH" H 3050 1250 40  0000 C CNN
F 2 "~" H 3050 1350 60  0000 C CNN
F 3 "~" H 3050 1350 60  0000 C CNN
	1    3050 1350
	-1   0    0    1   
$EndComp
$Comp
L DCJ0202 J1
U 1 1 579E716D
P 3500 950
F 0 "J1" H 3400 1100 45  0000 L BNN
F 1 "DC_Jack" H 3400 700 45  0000 L BNN
F 2 "con-jack_DCJ0202" H 3530 1100 20  0001 C CNN
F 3 "" H 3500 950 60  0000 C CNN
	1    3500 950 
	0    1    1    0   
$EndComp
Wire Wire Line
	3600 1250 3600 1350
Wire Wire Line
	3600 1350 3250 1350
Wire Wire Line
	3300 1250 3500 1250
Connection ~ 3400 1250
Wire Wire Line
	1450 1450 1850 1450
Wire Wire Line
	3950 3700 3800 3700
Text Label 3800 3700 0    47   ~ 0
Spkr
Wire Wire Line
	4400 5900 4250 5900
Text Label 4250 5900 0    47   ~ 0
PB7
Wire Wire Line
	3950 3900 3800 3900
Text Label 3800 3900 0    47   ~ 0
PB7
Text Label 4350 5750 0    47   ~ 0
PD5
Wire Wire Line
	4500 5750 4350 5750
Text Label 6000 5100 2    47   ~ 0
PD5
Wire Wire Line
	5850 5100 6000 5100
Wire Wire Line
	4600 5900 4750 5900
Text Label 4750 5900 2    47   ~ 0
PD6
Text Label 6000 5200 2    47   ~ 0
PD6
Wire Wire Line
	5100 6650 5100 6450
Wire Wire Line
	5100 6450 4950 6450
Text Label 4950 6450 0    47   ~ 0
PD7
Wire Wire Line
	5850 5300 6000 5300
Text Label 6000 5300 2    47   ~ 0
PD7
Text Label 5050 6300 0    47   ~ 0
PB0
Wire Wire Line
	5200 6650 5200 6300
Wire Wire Line
	5200 6300 5050 6300
Wire Wire Line
	5850 3100 6000 3100
Text Label 6000 3100 2    47   ~ 0
PB1
Wire Wire Line
	5850 3000 6000 3000
Text Label 6000 3000 2    47   ~ 0
PB0
Text Label 5550 6300 2    47   ~ 0
PB2
Wire Wire Line
	5300 6150 5450 6150
Text Label 5450 6150 2    47   ~ 0
PB1
$Comp
L VCC #PWR029
U 1 1 57A10AC7
P 1650 1450
F 0 "#PWR029" H 1650 1550 30  0001 C CNN
F 1 "VCC" H 1650 1550 30  0000 C CNN
F 2 "" H 1650 1450 60  0000 C CNN
F 3 "" H 1650 1450 60  0000 C CNN
	1    1650 1450
	1    0    0    -1  
$EndComp
Connection ~ 1650 1450
Connection ~ 5900 6450
Connection ~ 8400 6700
Connection ~ 9000 2500
Connection ~ 9000 2200
Connection ~ 8150 4200
Wire Wire Line
	10550 5550 10550 5400
Connection ~ 9650 5550
Wire Wire Line
	10550 5550 8300 5550
Wire Wire Line
	8300 5550 8300 5800
$Comp
L R R20
U 1 1 57A3214E
P 10450 4750
F 0 "R20" V 10530 4750 40  0001 C CNN
F 1 "230" V 10457 4751 40  0000 C CNN
F 2 "~" V 10380 4750 30  0000 C CNN
F 3 "~" H 10450 4750 30  0000 C CNN
	1    10450 4750
	1    0    0    -1  
$EndComp
$Comp
L R R19
U 1 1 57A32154
P 10350 4750
F 0 "R19" V 10430 4750 40  0001 C CNN
F 1 "230" V 10357 4751 40  0000 C CNN
F 2 "~" V 10280 4750 30  0000 C CNN
F 3 "~" H 10350 4750 30  0000 C CNN
	1    10350 4750
	1    0    0    -1  
$EndComp
$Comp
L R R18
U 1 1 57A3215A
P 10250 4750
F 0 "R18" V 10330 4750 40  0001 C CNN
F 1 "230" V 10257 4751 40  0000 C CNN
F 2 "~" V 10180 4750 30  0000 C CNN
F 3 "~" H 10250 4750 30  0000 C CNN
	1    10250 4750
	1    0    0    -1  
$EndComp
$Comp
L R R17
U 1 1 57A32160
P 10150 4750
F 0 "R17" V 10230 4750 40  0001 C CNN
F 1 "230" V 10157 4751 40  0000 C CNN
F 2 "~" V 10080 4750 30  0000 C CNN
F 3 "~" H 10150 4750 30  0000 C CNN
	1    10150 4750
	1    0    0    -1  
$EndComp
$Comp
L R R16
U 1 1 57A32166
P 10050 4750
F 0 "R16" V 10130 4750 40  0001 C CNN
F 1 "230" V 10057 4751 40  0000 C CNN
F 2 "~" V 9980 4750 30  0000 C CNN
F 3 "~" H 10050 4750 30  0000 C CNN
	1    10050 4750
	1    0    0    -1  
$EndComp
$Comp
L R R15
U 1 1 57A3216C
P 9950 4750
F 0 "R15" V 10030 4750 40  0001 C CNN
F 1 "230" V 9957 4751 40  0000 C CNN
F 2 "~" V 9880 4750 30  0000 C CNN
F 3 "~" H 9950 4750 30  0000 C CNN
	1    9950 4750
	1    0    0    -1  
$EndComp
$Comp
L R R13
U 1 1 57A32172
P 9850 4750
F 0 "R13" V 9930 4750 40  0001 C CNN
F 1 "230" V 9857 4751 40  0000 C CNN
F 2 "~" V 9780 4750 30  0000 C CNN
F 3 "~" H 9850 4750 30  0000 C CNN
	1    9850 4750
	1    0    0    -1  
$EndComp
$Comp
L R R12
U 1 1 57A32178
P 9750 4750
F 0 "R12" V 9830 4750 40  0001 C CNN
F 1 "230" V 9757 4751 40  0000 C CNN
F 2 "~" V 9680 4750 30  0000 C CNN
F 3 "~" H 9750 4750 30  0000 C CNN
	1    9750 4750
	1    0    0    -1  
$EndComp
$Comp
L R R10
U 1 1 57A3217E
P 9650 4750
F 0 "R10" V 9730 4750 40  0001 C CNN
F 1 "230" V 9657 4751 40  0000 C CNN
F 2 "~" V 9580 4750 30  0000 C CNN
F 3 "~" H 9650 4750 30  0000 C CNN
	1    9650 4750
	1    0    0    -1  
$EndComp
$Comp
L BC849 Q3
U 1 1 57A321C7
P 10800 3750
F 0 "Q3" H 10800 3601 40  0000 R CNN
F 1 "BC849" H 10800 3900 40  0000 R CNN
F 2 "SOT-23" H 10700 3852 29  0000 C CNN
F 3 "" H 10800 3750 60  0000 C CNN
	1    10800 3750
	-1   0    0    1   
$EndComp
$Comp
L BC849 Q1
U 1 1 57A321D4
P 9150 3750
F 0 "Q1" H 9150 3601 40  0000 R CNN
F 1 "BC849" H 9150 3900 40  0000 R CNN
F 2 "SOT-23" H 9050 3852 29  0000 C CNN
F 3 "" H 9150 3750 60  0000 C CNN
	1    9150 3750
	1    0    0    1   
$EndComp
Wire Wire Line
	9650 4350 9500 4350
Wire Wire Line
	9500 4350 9500 4200
$Comp
L VCC #PWR030
U 1 1 57A3229C
P 9500 4200
F 0 "#PWR030" H 9500 4300 30  0001 C CNN
F 1 "VCC" H 9500 4300 30  0000 C CNN
F 2 "" H 9500 4200 60  0000 C CNN
F 3 "" H 9500 4200 60  0000 C CNN
	1    9500 4200
	1    0    0    -1  
$EndComp
Wire Wire Line
	9650 3050 9500 3050
Wire Wire Line
	9500 3050 9500 3250
$Comp
L GND #PWR031
U 1 1 57A32366
P 9500 3250
F 0 "#PWR031" H 9500 3250 30  0001 C CNN
F 1 "GND" H 9500 3180 30  0001 C CNN
F 2 "" H 9500 3250 60  0000 C CNN
F 3 "" H 9500 3250 60  0000 C CNN
	1    9500 3250
	-1   0    0    -1  
$EndComp
Wire Wire Line
	9650 4500 9650 4450
Wire Wire Line
	9650 4450 9250 4450
Wire Wire Line
	9250 4450 9250 3950
Wire Wire Line
	10550 4500 10550 4450
Wire Wire Line
	10550 4450 10700 4450
Wire Wire Line
	10700 4450 10700 3950
Wire Wire Line
	10450 4500 10450 4350
Wire Wire Line
	10350 4350 10350 4500
Wire Wire Line
	10250 4350 10250 4500
Wire Wire Line
	10150 4350 10150 4500
Wire Wire Line
	10050 4350 10050 4500
Wire Wire Line
	9950 4350 9950 4500
Wire Wire Line
	9850 4350 9850 4500
Wire Wire Line
	9750 4350 9750 4500
Wire Wire Line
	8950 3750 8850 3750
Wire Wire Line
	8850 3750 8850 3550
Wire Wire Line
	11000 3750 11100 3750
Wire Wire Line
	11100 3750 11100 3550
$Comp
L R R21
U 1 1 57A33070
P 11100 3300
F 0 "R21" V 11180 3300 40  0001 C CNN
F 1 "1k" V 11107 3301 40  0000 C CNN
F 2 "~" V 11030 3300 30  0000 C CNN
F 3 "~" H 11100 3300 30  0000 C CNN
	1    11100 3300
	1    0    0    -1  
$EndComp
$Comp
L R R9
U 1 1 57A3307B
P 8850 3300
F 0 "R9" V 8930 3300 40  0001 C CNN
F 1 "1k" V 8857 3301 40  0000 C CNN
F 2 "~" V 8780 3300 30  0000 C CNN
F 3 "~" H 8850 3300 30  0000 C CNN
	1    8850 3300
	1    0    0    -1  
$EndComp
Wire Wire Line
	9250 3550 9250 3450
Wire Wire Line
	10700 3450 10700 3550
$Comp
L GND #PWR032
U 1 1 57A33314
P 9250 3450
F 0 "#PWR032" H 9250 3450 30  0001 C CNN
F 1 "GND" H 9250 3380 30  0001 C CNN
F 2 "" H 9250 3450 60  0000 C CNN
F 3 "" H 9250 3450 60  0000 C CNN
	1    9250 3450
	1    0    0    1   
$EndComp
$Comp
L GND #PWR033
U 1 1 57A3331A
P 10700 3450
F 0 "#PWR033" H 10700 3450 30  0001 C CNN
F 1 "GND" H 10700 3380 30  0001 C CNN
F 2 "" H 10700 3450 60  0000 C CNN
F 3 "" H 10700 3450 60  0000 C CNN
	1    10700 3450
	1    0    0    1   
$EndComp
Wire Wire Line
	10450 3050 10450 2900
Wire Wire Line
	11100 3050 11100 2900
Wire Wire Line
	10350 2900 10350 3050
Wire Wire Line
	10250 2900 10250 3050
Wire Wire Line
	10150 3050 10150 2900
Wire Wire Line
	10050 2900 10050 3050
Wire Wire Line
	9950 3050 9950 2900
Wire Wire Line
	9850 2900 9850 3050
Wire Wire Line
	9750 2900 9750 3050
Wire Wire Line
	8850 3050 8850 2900
$Comp
L ULN2803A U2
U 1 1 57A33D31
P 10050 3700
F 0 "U2" H 10050 3800 70  0000 C CNN
F 1 "ULN2803A" H 10050 3150 70  0000 C CNN
F 2 "" H 10050 3700 60  0000 C CNN
F 3 "" H 10050 3700 60  0000 C CNN
	1    10050 3700
	0    1    1    0   
$EndComp
$Comp
L BC849 Q4
U 1 1 57A357D9
P 6750 2700
F 0 "Q4" H 6750 2551 40  0000 R CNN
F 1 "BC849" H 6750 2850 40  0000 R CNN
F 2 "SOT-23" H 6650 2802 29  0000 C CNN
F 3 "" H 6750 2700 60  0000 C CNN
	1    6750 2700
	1    0    0    -1  
$EndComp
Wire Wire Line
	7000 2900 7000 2700
Wire Wire Line
	7000 2700 7100 2700
$Comp
L VCC #PWR034
U 1 1 57A358EB
P 6850 2500
F 0 "#PWR034" H 6850 2600 30  0001 C CNN
F 1 "VCC" H 6850 2600 30  0000 C CNN
F 2 "" H 6850 2500 60  0000 C CNN
F 3 "" H 6850 2500 60  0000 C CNN
	1    6850 2500
	1    0    0    -1  
$EndComp
$Comp
L R R22
U 1 1 57A358F1
P 6550 2950
F 0 "R22" V 6630 2950 40  0001 C CNN
F 1 "1k" V 6557 2951 40  0000 C CNN
F 2 "~" V 6480 2950 30  0000 C CNN
F 3 "~" H 6550 2950 30  0000 C CNN
	1    6550 2950
	1    0    0    -1  
$EndComp
Wire Wire Line
	6850 2900 7000 2900
Wire Wire Line
	7250 3500 7050 3500
Wire Wire Line
	5850 3300 6050 3300
Text Label 6050 3300 2    47   ~ 0
MOSI
Text Label 7250 3500 2    47   ~ 0
MOSI
Wire Wire Line
	5850 3400 6050 3400
Text Label 6050 3400 2    47   ~ 0
MISO
Wire Wire Line
	6350 3400 6150 3400
Text Label 6150 3400 0    47   ~ 0
MISO
Wire Wire Line
	5850 3500 6050 3500
Text Label 6050 3500 2    47   ~ 0
SCK
Wire Wire Line
	6350 3500 6150 3500
Text Label 6150 3500 0    47   ~ 0
SCK
Text Label 6150 3600 0    47   ~ 0
RESET
Wire Wire Line
	3900 2150 5100 2150
Text Label 5100 2150 2    47   ~ 0
RESET
Wire Wire Line
	6350 3200 6550 3200
Wire Wire Line
	5850 3200 6000 3200
Text Label 6000 3200 2    47   ~ 0
PB2
Text Label 6350 3200 0    47   ~ 0
Spkr
Connection ~ 7900 6000
Wire Wire Line
	8150 5600 8150 6000
Wire Wire Line
	8150 6000 8300 6000
$Comp
L VCC #PWR035
U 1 1 57A3B27B
P 9500 2200
F 0 "#PWR035" H 9500 2300 30  0001 C CNN
F 1 "VCC" H 9500 2300 30  0000 C CNN
F 2 "" H 9500 2200 60  0000 C CNN
F 3 "" H 9500 2200 60  0000 C CNN
	1    9500 2200
	1    0    0    -1  
$EndComp
$Comp
L VCC #PWR036
U 1 1 57A3B295
P 9500 2500
F 0 "#PWR036" H 9500 2600 30  0001 C CNN
F 1 "VCC" H 9500 2600 30  0000 C CNN
F 2 "" H 9500 2500 60  0000 C CNN
F 3 "" H 9500 2500 60  0000 C CNN
	1    9500 2500
	1    0    0    -1  
$EndComp
Wire Wire Line
	8600 2500 8450 2500
Wire Wire Line
	8600 2200 8450 2200
Wire Wire Line
	5850 3800 6050 3800
Wire Wire Line
	5850 4000 6050 4000
Wire Wire Line
	5850 3900 6050 3900
Text Label 6050 3800 2    47   ~ 0
PC1
Text Label 6050 3900 2    47   ~ 0
PC2
Text Label 6050 4000 2    47   ~ 0
PC3
Wire Wire Line
	8100 6500 8100 6450
Wire Wire Line
	8100 6450 7700 6450
Wire Wire Line
	7200 6450 7050 6450
Wire Wire Line
	5850 4900 6000 4900
Wire Wire Line
	5850 5000 6000 5000
Text Label 6000 5000 2    47   ~ 0
PD4
Text Label 6000 4900 2    47   ~ 0
PD3
Wire Wire Line
	6800 6150 6800 6000
Wire Wire Line
	6800 6000 6600 6000
Connection ~ 6800 6150
Text Label 8450 2200 0    47   ~ 0
PD4
Text Label 8450 2500 0    47   ~ 0
PD3
Text Label 6600 6000 0    47   ~ 0
PC2
Text Label 7050 6450 0    47   ~ 0
PC3
Wire Wire Line
	7650 4200 7650 4050
Connection ~ 7650 4200
Wire Wire Line
	7900 6000 7650 6000
Wire Wire Line
	5850 3700 6050 3700
Text Label 6050 3700 2    47   ~ 0
PC0
Text Label 7650 6000 0    47   ~ 0
PC0
Connection ~ 8150 5600
Wire Wire Line
	8150 5600 7950 5600
Text Label 7950 5600 0    47   ~ 0
PC1
Wire Wire Line
	5850 4100 6050 4100
Text Label 6050 4100 2    47   ~ 0
PC4
Text Label 7550 4450 0    47   ~ 0
PC4
NoConn ~ 5850 4400
$EndSCHEMATC
